^C:\USERS\TYLER\DESKTOP\GAMES DEV\COS30031-100920263\23 - SPIKE - SOUND BOARD\LAB23\SDL_FIX\STDAFX.CPP
C:\USERS\TYLER\DESKTOP\GAMES DEV\COS30031-100920263\23 - SPIKE - SOUND BOARD\LAB23\SDL_FIX\X64\DEBUG\SDL_FIX.PCH
C:\USERS\TYLER\DESKTOP\GAMES DEV\COS30031-100920263\23 - SPIKE - SOUND BOARD\LAB23\SDL_FIX\X64\DEBUG\VC140.PDB
C:\USERS\TYLER\DESKTOP\GAMES DEV\COS30031-100920263\23 - SPIKE - SOUND BOARD\LAB23\SDL_FIX\X64\DEBUG\VC140.IDB
C:\USERS\TYLER\DESKTOP\GAMES DEV\COS30031-100920263\23 - SPIKE - SOUND BOARD\LAB23\SDL_FIX\X64\DEBUG\STDAFX.OBJ
^C:\USERS\TYLER\DESKTOP\GAMES DEV\COS30031-100920263\23 - SPIKE - SOUND BOARD\LAB23\SDL_FIX\SDL_FIX.CPP
C:\USERS\TYLER\DESKTOP\GAMES DEV\COS30031-100920263\23 - SPIKE - SOUND BOARD\LAB23\SDL_FIX\X64\DEBUG\VC140.PDB
C:\USERS\TYLER\DESKTOP\GAMES DEV\COS30031-100920263\23 - SPIKE - SOUND BOARD\LAB23\SDL_FIX\X64\DEBUG\VC140.IDB
C:\USERS\TYLER\DESKTOP\GAMES DEV\COS30031-100920263\23 - SPIKE - SOUND BOARD\LAB23\SDL_FIX\X64\DEBUG\SDL_FIX.OBJ
